"First Name","First Name","Last Name","Last Name","status","Body","Title","Body"
"Users","6","16","21"," deactive "," 6 ","",""
"User Roles","6","10","15"," deactive "," 6 ","",""
"User Management","","3","22"," deactive ","  ","",""
"User List","12","19","20"," deactive "," 12 ","",""
"Roles List","10","13","14"," deactive "," 10 ","",""
"Permissions List","7","5","6"," deactive "," 7 ","",""
"Permissions","6","4","9"," deactive "," 6 ","",""
"Permission Groups","7","7","8"," deactive "," 7 ","",""
"Menu Management","","23","28"," deactive ","  ","",""
"Menu List","3","26","27"," deactive "," 3 ","",""
"Dashboard","","1","2"," deactive ","  ","",""
"Add User","12","17","18"," deactive "," 12 ","",""
"Add Role","10","11","12"," deactive "," 10 ","",""
"Add Menu","3","24","25"," deactive "," 3 ","",""
